[
	{
    "_id":"c-100",
    "_parentId":"b-100",
    "_type":"component",
    "_component":"branchChart",
    "_classes":"",
    "title":"",
    "displayTitle":"",
    "body":"You've already created ads on Facebook, and you're familiar with their three main components: campaigns, ad sets, and ads — collectively, we call these <strong>ad objects</strong>.",
    "instruction":"",
    "componentWidth": "80%",
    "verticalPadding": "",
    "align": "center",
    "fontSizeText":"2.75vmin",
    "fontSizeCaption":"2vmin",
    "fontColorText":"#ffffff",
    "fontColorCaption":"#000",
    "borderColor": "#ef4025",
    "backgroundColor": "#4267b2",
    "topText": "Campaign",
    "topCaption": "Campaign includes ad objective",
    "midLeftText": "Ad set",
    "midRightText": "Ad set",
    "midCaption": "Ad Set includes audience, placement,<br>budget, schedule, and bidding",
    "bottomLeftOuterText": "Ad",
    "bottomLeftInnerText": "Ad",
    "bottomRightOuterText": "Ad",
    "bottomRightInnerText": "Ad",
    "bottomCaption": "Ad includes ad format and creative"
	},
	{
		"_id": "c-110",
		"_parentId": "b-110",
		"_type": "component",
		"_component": "text",
		"_classes": "",
		"_layout": "full",
		"title": "Edit and update at campaign, ad set, or ad level",
		"displayTitle": "",
		"body": "Remember, you'll set an ad objective (which aligns with your business goal) at the <strong>campaign</strong> level, specify delivery options (audience, placements, schedule, and budget) at the <strong>ad set</strong> level, and set your ad format, creative, and copy at the <strong>ad</strong> level.<br><br>This course will show you how to edit and update many of these options.<br><br>If you're just getting started with Facebook advertising, consider taking the following Blueprint courses before continuing with this one:<br><br><ul><li><em>Create Facebook Ads</em></li><li><em>Ad Auction and Delivery Overview</em></li></ul>",
		"instruction": "",
		"_isComplete": true,
		"_pageLevelProgress": {
			"_isEnabled": false
		}
	},

	{
		"_id": "c-120",
		"_parentId": "b-120",
		"_type": "component",
		"_component": "text",
		"_classes": "",
		"_layout": "full",
		"title": "Learning objectives",
		"displayTitle": "Learning objectives",
		"body": "By the end of this course, you'll be able to accomplish the following objectives:<ul><li>Use Ads Manager to locate existing campaigns, ad sets, and ads.</li><li>Duplicate campaigns, ad sets, and ads.</li><li>Edit ad sets and ads one at a time or at scale.</li><li>Create and edit ads with the import/export tool.</li><li>Gain insight into advanced actions, such as split testing, campaign tags, and automatic rules.</li></ul>",
		"instruction": "",
		"_isComplete": true,
		"_pageLevelProgress": {
			"_isEnabled": true
		}
	},
	{
		"_id":"c-199",
		"_parentId":"b-199",
		"_type":"component",
		"_component":"co-jump",
		"_classes":"color-test",
		"title": "Next up",
		"_preLinkBody":"Let’s ",
		"_linkBody":"Identify and Locate Editable Elements",
		"_postLinkBody":" of Facebook ads, and determine how to find and adjust them in Ads Manager.",
		"_link":"#/id/co-200",
		"_graphic":"adapt/css/assets/icon_nextPage.png",
		"_isComplete": true,
		"_pageLevelProgress": {
			"_isEnabled": false
		}
	},




	{
		"_id": "c-200",
		"_parentId": "b-200",
		"_type": "component",
		"_component": "text",
		"_classes": "",
		"_layout": "full",
		"title": "Intro",
		"displayTitle": "",
		"body": "After a campaign launches, you can still adjust messaging, creative, budget, placement, schedule, and targeting.",
		"instruction": "",
		"_isComplete": false,
		"_pageLevelProgress": {
			"_isEnabled": false
		}
	},
	{
		"_id": "c-200b",
		"_parentId": "b-200",
		"_type": "component",
		"_component": "graphic",
		"_classes": "",
		"_layout": "full",
		"title": "Browse in Ads Manager",
		"displayTitle": "Locate existing ad objects in Ads Manager",
		"body": "Before you can edit something, you need to find it. You can browse for campaigns, ad sets, and ads by navigating to the corresponding tabs.",
		"instruction": "",
		"_graphic": {
			"src": "course/en/images/am_tabs.png",
			"alt": "Search tool"
		},
		"_isComplete": false,
		"_pageLevelProgress": {
			"_isEnabled": true
		}
	},
    {
		"_id": "c-210",
		"_parentId": "b-210",
		"_type": "component",
		"_component": "text",
		"_classes": "",
		"_layout": "full",
		"title": "Search in Ads Manager",
		"displayTitle": "",
		"body": "<div style='margin-bottom:-2.5em;'>If you manage a large number of ad objects, there are three additional options within Ads Manager to help you track down specific ad objects.</div>",
		"instruction": "",
		"_isComplete": false,
		"_pageLevelProgress": {
			"_isEnabled": false
		}
	},
	{
		"_id": "c-220",
		"_parentId": "b-220",
		"_type": "component",
		"_component": "graphic",
		"_classes": "",
		"_layout": "left",
		"title": "Search in Ads Manager",
		"displayTitle": "",
		"body": "<h2>Search</h2><br>Search by the name or ID number of a campaign, ad set, or ad. </div>",
		"instruction": "",
		"_graphic": {
			"src": "course/en/images/am_search.png",
			"alt": "Search tool"
		},
		"_isComplete": false,
		"_pageLevelProgress": {
			"_isEnabled": true
		}
	},
	{
		"_id": "c-221",
		"_parentId": "b-220",
		"_type": "component",
		"_component": "graphic",
		"_classes": "",
		"_layout": "right",
		"title": "Filter in Ads Manager",
		"displayTitle": "",
		"body": "<h2>Filters</h2><br>Filter ad objects based on delivery, objective, buying type, placement, and other attributes.",
		"instruction": "",
		"_graphic": {
			"src": "course/en/images/am_filter.png",
			"alt": "Filter ad objects"
		},
		"_isComplete": false,
		"_pageLevelProgress": {
			"_isEnabled": true
		}
	},

	{
		"_id": "c-230",
		"_parentId": "b-230",
		"_type": "component",
		"_component": "text",
		"_classes": "",
		"_layout": "full",
		"title": "Apply multiple filters",
		"displayTitle": "",
		"body": "You can apply multiple filters by selecting the <span style='padding:.2em .4em;background-color:#C4D2E7;'><strong>+</strong></span> button next to the <strong>Filters</strong> button, then clicking <b>Add</b> and selecting additional filters. ",
		"instruction": "",
		"_isComplete": false,
		"_pageLevelProgress": {
			"_isEnabled": false
		}
	},
	{
		"_id": "c-230l",
		"_parentId": "b-230",
		"_type": "component",
		"_component": "graphic",
		"_classes": "",
		"_layout": "left",
		"title": "Add filter",
		"displayTitle": "",
		"body": "",
		"instruction": "",
		"_graphic": {
			"src": "course/en/images/filter_add.png",
			"alt": "Add filter"
		},
		"_isComplete": false,
		"_pageLevelProgress": {
			"_isEnabled": false
		}
	},

	{
		"_id": "c-230r",
		"_parentId": "b-230",
		"_type": "component",
		"_component": "graphic",
		"_classes": "",
		"_layout": "right",
		"title": "Multiple filters",
		"displayTitle": "",
		"body": "",
		"instruction": "",
		"_graphic": {
			"src": "course/en/images/filter_multi.png",
			"alt": "Add multiple filters"
		},
		"_isComplete": false,
		"_pageLevelProgress": {
			"_isEnabled": false
		}
	},
	{
		"_id": "c-240",
		"_parentId": "b-240",
		"_type": "component",
		"_component": "graphic",
		"_classes": "",
		"_layout": "full",
		"title": "Set date range",
		"displayTitle": "",
		"body": "<h2>Set date range</h2><br>Use the calendar tool to help you locate or compare objects by date. A retailer might look into the highest performing back-to-school ads from prior years before launching this year’s campaign.",
		"instruction": "",
		"_graphic": {
			"src": "course/en/images/stats_date.png",
			"alt": "View by date range"
		},
		"_isComplete": false,
		"_pageLevelProgress": {
			"_isEnabled": true
		}
	},
	{
		"_id":"c-299",
		"_parentId":"b-299",
		"_type":"component",
		"_component":"co-jump",
		"_classes":"color-test",
		"title":"Next",
		"_preLinkBody":"You can quickly develop new ads by reusing and updating ones you've already created. Let's look at how to ",
		"_linkBody":"Duplicate Existing Ad Objects",
		"_postLinkBody":" with Ads Manager.",
		"_link":"#/id/co-300",
		"_graphic":"adapt/css/assets/icon_nextPage.png",
		"_isComplete": true,
		"_pageLevelProgress": {
			"_isEnabled": false
		}
	},
	{
		"_id":"c-300",
		"_parentId":"b-300",
		"_type":"component",
		"_component":"graphic",
		"_classes":"",
		"_layout":"full",
		"title":"Duplicate and modify",
		"displayTitle":"",
		"body":"While using the <b>Quick Creation</b> workflow lets you generate empty ad objects, you can also duplicate existing ads, ad sets, or campaigns with all of their existing creative intact &mdash; then modify the copy without changing the original. In all cases, you can specify how many copies to make.<br><br><img src='course/en/images/duplicate_select.png' alt='Selecting object to duplicate'><br><br>Duplicating and modifying ad objects (rather than building from scratch) can help you more efficiently:<br><ul><li>Update an existing ad while keep the metrics for the original and new versions separate.</li><li>A/B test creative, audiences, placements, or ad delivery optimization.</li><li>Scale and customize campaigns, ad sets, or ads for a range of products and audiences.</li></ul>",
		"instruction":"",
		"_graphic": {
			"alt": "Duplicate ads",
			"src": "course/en/images/duplicate2.png"
		},
		"_isComplete": false,
		"_pageLevelProgress": {
			"_isEnabled": true
		}
	},
	{
		"_id":"c-310",
		"_parentId":"b-310",
		"_type":"component",
		"_component":"text",
		"_classes":"",
		"_layout":"full",
		"title":"Budgeting for duplicates",
		"displayTitle":"",
		"body":"Duplicating a campaign also duplicates all ad sets and ads within that campaign; duplicate campaigns default to the same spending limit as the original, but you can change this value if you want. Duplicated ad sets include every ad in the original ad set and pull from the same budget as the original. Duplicated ads use the budget that belongs to the ad set they're placed in and won't increase your overall budget. <br><br>You can opt to set a new budget at the time you create a duplicate ad set and can edit any ad set budgets at any time. Remember, clicking either the <b>Confirm</b> or <b>Publish</b> buttons in Ads Manager is an agreement to be billed.<br><br>Anytime you duplicate a campaign, ad set, or ad, you'll be able to specify the number of copies to make and give it a unique name. You can also designate whether it should be actively delivering or have the same status as the original.",
		"instruction":"",
		"_isComplete": true,
		"_pageLevelProgress": {
			"_isEnabled": true
		}
	},
	{
		"_id":"c-320l",
		"_parentId":"b-320",
		"_type":"component",
		"_component":"graphic",
		"_classes":"texture_concrete",
		"_layout":"left",
		"title":"Duplicate a campaign",
		"displayTitle":"",
		"body":"",
		"instruction":"",
		"_graphic": {
			"alt": "Duplicate campaign",
			"src": "course/en/images/dupe_campaign.png"
		},
		"_isComplete": false,
		"_pageLevelProgress": {
			"_isEnabled": true
		}
	},
	{
		"_id":"c-320r",
		"_parentId":"b-320",
		"_type":"component",
		"_component":"text",
		"_classes":"texture_wood",
		"_layout":"right",
		"title":"Duplicate a campaign",
		"displayTitle":"",
		"body":"When you duplicate a campaign:<ul><li>You can change the ad objective, but optimization and delivery settings may be reset to the default for that objective.</li><li>Other ad set and ad settings that won't transfer to your new objective may either be changed to the default or deleted. You can make edits later.</li></ul>",
		"instruction":"",
		"_isComplete": true,
		"_pageLevelProgress": {
			"_isEnabled": false
		}
	},
	{
		"_id":"c-330l",
		"_parentId":"b-330",
		"_type":"component",
		"_component":"graphic",
		"_classes":"",
		"_layout":"left",
		"title":"Duplicate an ad set",
		"displayTitle":"",
		"body":"",
		"instruction":"",
		"_graphic": {
			"alt": "Duplicate ad set",
			"src": "course/en/images/dupe_adset.png"
		},
		"_isComplete": true,
		"_pageLevelProgress": {
			"_isEnabled": true
		}
	},
	{
		"_id":"c-330r",
		"_parentId":"b-330",
		"_type":"component",
		"_component":"text",
		"_classes":"texture_wood",
		"_layout":"right",
		"title":"Duplicate an ad set",
		"displayTitle":"",
		"body":"You can duplicate an ad set into:<ul><li>The campaign that contains the original ad set.</li><li>Another existing campaign.</li><li>A brand new campaign.</li></ul>",
		"instruction":"",
		"_isComplete": true,
		"_pageLevelProgress": {
			"_isEnabled": false
		}
	},
	{
		"_id":"c-340l",
		"_parentId":"b-340",
		"_type":"component",
		"_component":"graphic",
		"_classes":"",
		"_layout":"left",
		"title":"Duplicate an ad",
		"displayTitle":"",
		"body":"",
		"instruction":"",
		"_graphic": {
			"alt": "Duplicate campaign",
			"src": "course/en/images/dupe_ad.png"
		},
		"_isComplete": false,
		"_pageLevelProgress": {
			"_isEnabled": true
		}
	},
	{
		"_id":"c-340r",
		"_parentId":"b-340",
		"_type":"component",
		"_component":"text",
		"_classes":"texture_wood",
		"_layout":"right",
		"title":"Duplicate ad",
		"displayTitle":"",
		"body":"You can duplicate an ad into:<ul><li>A new or existing campaign.</li><li>A new or existing ad set.</li><li>Multiple ad sets.</li></ul>",
		"instruction":"",
		"_pageLevelProgress": {
			"_isEnabled": false
		},
		"_isComplete": true
	},
	{
		"_id":"c-399",
		"_parentId":"b-399",
		"_type":"component",
		"_component":"co-jump",
		"_classes":"color-test",
		"_preLinkBody":"In the next section, we'll go over how to ",
		"_linkBody":"Edit Campaigns, Ad Sets, and Ads",
		"_postLinkBody":" so you can update creative, audience, placements, budget, and delivery schedule.",
		"_link":"#/id/co-400",
		"_graphic":"adapt/css/assets/icon_nextPage.png",
		"_pageLevelProgress": {
			"_isEnabled": false
		},
		"_isComplete": true
	},
	{
		"_id":"c-400",
		"_parentId":"b-400",
		"_type":"component",
		"_component":"text",
		"_classes":"",
		"_layout":"full",
		"title":"",
		"displayTitle":"",
		"body":"Nobody's perfect. That's why within Ads Manager you can help easily fix a typo or broken link, increase or decrease your budget, and adjust delivery based on ad performance. <br><br>You can update ad objects one by one, a handful at a time, or at scale with the bulk import/export workflow.",
		"instruction":"",
		"_isComplete": false,
		"_pageLevelProgress": {
			"_isEnabled": false
		}
	},
	{
		"_id":"c-410",
		"_parentId":"b-410",
		"_type":"component",
		"_component":"text",
		"_classes":"",
		"_layout":"full",
		"title":"Make data-driven decisions",
		"displayTitle":"Make data-driven decisions",
		"body":"Before adjusting budget or delivery, we recommend using Ads Manager to review reporting metrics for the campaigns, ad sets, or ads you're considering changing. <br><br>Consider copying then editing (rather than just editing) campaigns, ad sets, or ads so you can run multiple versions simultaneously to see which get the best results. Once you change an ad object, the new version replaces the old one; there’s no undo option, and no way to distinguish between the metrics from before and after edits are made.",
		"instruction":"",
		"_pageLevelProgress": {
			"_isEnabled": true
		},
		"_isComplete": false
	},
	{
		"_id":"c-420",
		"_parentId":"b-420",
		"_type":"component",
		"_component":"graphic",
		"_classes":"",
		"_layout":"full",
		"title":"Start and stop delivery",
		"displayTitle":"Start and stop delivery",
		"body":"To start or stop delivering your ads, turn them on and off. When the switch next to your campaign, ad set, or ad is blue, the campaign is on. To stop delivering a campaign, ad set, or ad, toggle the switch so it turns gray.",
		"_graphic": {
			"alt": "Toggle delivery on/off",
			"src": "course/en/images/toggle.png"
		},
		"instruction":"",
		"_isComplete": false,
		"_pageLevelProgress": {
			"_isEnabled": true
		}
	},
	{
		"_id":"c-430",
		"_parentId":"b-430",
		"_type":"component",
		"_component":"graphic",
		"_classes":"",
		"_layout":"full",
		"title":"Hierarchy and delivery",
		"displayTitle":"",
		"body":"Keep in mind the following to avoid disruption to your ads:<br><ul><li>If you turn off a campaign, it'll also stop all ads and ad sets in that campaign.</li><li>If you turn off an ad set, it will stop all the ads in that ad set. </li><li>To turn ad delivery back on, you may need to turn on the parent ad set and campaign as well.</li></ul><br><br>If an ad or ad set is on, but the campaign it belongs to is off, the ad won’t be delivered. Similarly, incomplete campaigns (such as an ad set that doesn't contain ads), can't be delivered.",
		"instruction":"",
		"_graphic": {
			"alt": "Save a report",
			"src": "course/en/images/toggle_exceptions.png"
		},
		"_isComplete": true,
		"_pageLevelProgress": {
			"_isEnabled": false
		}
	},
	{
		"_id":"c-440",
		"_parentId":"b-440",
		"_type":"component",
		"_component":"text",
		"_classes":"",
		"_layout":"full",
		"title":"Adjust delivery",
		"displayTitle":"",
		"body":"You can make specific changes to an ad's delivery schedule, budget, and target audience at the ad set level: read on to learn how.<br><br>If you <a href='https://www.facebook.com/business/help/991073724257797' target='_blank'>delete campaigns, ad sets, and ads</a>, you won't be able to run or restore them. Reporting data will still remain available.",
		"instruction":"",
		"_isComplete": false,
		"_pageLevelProgress": {
			"_isEnabled": true
		}
	},
	{
		"_id":"c-450",
		"_parentId":"b-450",
		"_type":"component",
		"_component":"graphic",
		"_classes":"",
		"_layout":"full",
		"title":"Edit a single campaign, ad set, or ad, from the edit pane",
		"displayTitle":"Edit a single campaign, ad set, or ad, from the edit pane",
		"body":"To edit a single ad object, first locate it in Ads Manager, then hover over its name until the “edit” link appears. Click the edit link and it opens an edit pane from which you can make changes to that object.",
		"instruction":"",
		"_graphic": {
			"alt": "Save a report",
			"src": "course/en/images/am_edit.png"
		},
		"_isComplete": false,
		"_pageLevelProgress": {
			"_isEnabled": true
		}
	},
	{
		"_id":"c-452",
		"_parentId":"b-450",
		"_type":"component",
		"_component":"accordion",
		"_classes":"",
		"_layout":"full",
		"title": "Editing",
		"displayTitle": "",
		"body": "",
		"instruction": "",
		"_items": [
			{
				"title": "Edit a campaign",
				"body": "At the campaign level, you can edit the campaign’s name and spending limit. You can change the ad objective, but note that this may impact ad set and ad settings.<br><br><img src='course/en/images/am_edit_campaign.png' alt='edit campaign'>"
			},
			{
				"title": "Edit an ad set",
				"body": "You can edit any options set at the ad set level: budget and schedule, audience, placement, optimizations, and delivery.<br><br><img src='course/en/images/am_edit_set.png' alt='edit ad set'><br>This is where you can modify objective-specific details, such as the offer connected to a conversion ad."
			},
			{
				"title": "Edit an ad",
				"body": "Edit an ad's name and creative — and preview changes — at the ad level.<br><br><img src='course/en/images/am_edit_ad.png' alt='edit ad'>"
			}
		],
		"_isComplete": true,
		"_pageLevelProgress": {
			"_isEnabled": false
		}
    },
	{
		"_id":"c-460",
		"_parentId":"b-460",
		"_type":"component",
		"_component":"graphic",
		"_classes":"",
		"_layout":"full",
		"title":"Edit multiple ad objects at once",
		"displayTitle":"Edit multiple ad objects at once",
		"body":"To simultaneously edit multiple ad objects, select the checkboxes associated with each, hover to bring up an edit link for any of them, and click it.",
		"instruction":"",
		"_graphic": {
			"alt": "Save a report",
			"src": "course/en/images/am_edit_multi.png"
		},
		"_isComplete": false,
		"_pageLevelProgress": {
			"_isEnabled": true
		}
	},
	{
		"_id":"c-462",
		"_parentId":"b-460",
		"_type":"component",
		"_component":"text",
		"_classes":"",
		"_layout":"full",
		"title":"Edit multiple ad objects at once",
		"displayTitle":"",
		"body":"When editing multiple campaigns, ad sets, or ads, keep in mind that any changes you make will take place across all campaigns, ad sets, or ads you selected. For example, if you edit two ad sets' audiences at the same time, all the ads contained in both those ad sets will be delivered to the new audience.",
		"instruction":"",
		"_pageLevelProgress": {
			"_isEnabled": false
		},
		"_isComplete": false
	},
    {
		"_id":"c-465",
		"_parentId":"b-465",
		"_type":"component",
		"_component":"accordion",
		"_classes":"",
		"_layout":"full",
		"title": "Quick table edits that go live immediately ",
		"displayTitle": "Edit directly in the reporting table ",
		"body": "You can make certain edits to campaigns, ad sets, and ads directly in the reporting table. These changes will be applied <i>immediately</i> with no need for further review.",
		"instruction": "",
		"_items": [
			{
				"title": "Budget",
				"body": "To edit your budget, select the campaign or ad set, click in the budget field, and make your edit.<br><br><img src='course/en/images/budget.png' alt='budget'>"
			},
			{
				"title": "Bid",
				"body": "If your bid strategy is <b>target cost</b> or <b>lowest cost with a bid cap</b>, you can change that amount here. After you've made your edit, click publish.<br><br><img src='course/en/images/bid.png' alt='bid'>"
			},
			{
				"title": "Schedule",
				"body": "Edit the start and end dates for campaigns and ad sets.<br><br><img src='course/en/images/sched.png' alt='schedule'>"
			},
            	{
				"title": "Title",
				"body": "Click the pencil icon <img src='course/en/images/pencil.png' alt='pencil icon'> next to the name of a campaign, ad set, or ad to edit the name of that object.<br><br><img src='course/en/images/title.png' alt='title'>"
			},
			{
				"title": "Status",
				"body": "Toggle the status button next to the name of a campaign, ad set, or ad to change the status from active to inactive or vice versa. Keep in mind that changing the status of a campaign object carries over to all the ad sets and ads within it. The same goes for ad sets and the ads they contain.<br><br><img src='course/en/images/status_active.png' alt='status active'><br><br><img src='course/en/images/status_inactive.png' alt='status inactive'>"
			}
		],
		"_isComplete": true,
		"_pageLevelProgress": {
			"_isEnabled": false
		}
    },
    {
        "_id":"c-466",
        "_parentId":"b-465",
        "_type":"component",
        "_component":"twoColumn",
        "_classes":"",
        "_layout":"full",
        "title":"2 columns",
        "displayTitle":"",
        "body":"",
        "instruction":"",
        "fontSize":"4vmin",
        "lineHeight":"",
        "fontColor":"#ffffff",
        "leftColumnWidth": "10%",
        "rightColumnWidth": "90%",
        "marginTop": "20px",
        "imageLayout": "left",
        "text": "Note: If you've saved previous changes and then later edit the <i>same campaign</i> in the reporting table, both the new edits and the saved edits for that item will be published immediately. You'll be prompted to confirm that you want to continue and publish all your edits. Click <b>Publish Draft Items</b> to apply the edits made in the reporting table <i>and</i> the edits you've previously saved.<br><br><img src='course/en/images/prompt.png' alt='prompt'>",
        "_graphic": {
            "alt": "Note",
            "src": "course/en/images/note.png"
        },
        "imageHeading": "",
        "imageSubHeading": ""
    },
	{
		"_id":"c-470",
		"_parentId":"b-470",
		"_type":"component",
		"_component":"text",
		"_classes":"",
		"_layout":"full",
		"title":"Edit and publish from the the editing pane",
		"displayTitle":"Edit and publish from the the editing pane",
		"body":"Follow these steps to edit campaigns, ad sets, and ads within the editing pane and publish immediately.<br><br><ol><li>Select campaign, ad set, or ad.</li><li>Click <b>Edit</b>.</li><li>Make edits in the editing pane.</li><li>Click <b>Publish</b>.</li></ol><br><br><img src='course/en/images/edit_publish.png' alt='edit and publish in the editing pane'>",
		"instruction":"",
		"_isComplete": false,
		"_pageLevelProgress": {
			"_isEnabled": true
		}
	},
    {
		"_id":"c-471",
		"_parentId":"b-470",
		"_type":"component",
		"_component":"text",
		"_classes":"",
		"_layout":"full",
		"title":"Edit, save to draft, and publish later",
		"displayTitle":"Edit, save to draft, and publish later",
		"body":"To make edits and publish the changes later, take the same steps as above, but select <b>Close</b> instead of <b>Publish</b>.<br><ul><li>Select the campaign, ad set, or ad that you want to edit, and click <img src='course/en/images/pencil.png' alt='pencil icon'> <b>Edit</b> to open the edit pane.</li><li>Changes will autosave to draft, so you can review and publish the changes later.</li><li> Once you've made your changes, click <b>Close</b> or the <img src='course/en/images/closearrow.png' alt='close arrow'> button in the upper left corner of the edit pane.</li></ul><br><img src='course/en/images/savetodraft.png' alt='save to draft'><br><br>To publish previously saved edits, click <b>Review and Publish</b> to review pending edits, confirm changes, and publish.<br><br><img src='course/en/images/reviewandpublish.png' alt='close arrow'>",
		"instruction":"",
		"_isComplete": false,
		"_pageLevelProgress": {
			"_isEnabled": true
		}
	},
    {
		"_id":"c-472",
		"_parentId":"b-470",
		"_type":"component",
		"_component":"text",
		"_classes":"",
		"_layout":"full",
		"title":"Discard changes without saving",
		"displayTitle":"Discard changes without saving",
		"body":"If you've made changes in the edit pane to a campaign, ad set, or ad but decide you don't want to save those changes, you can discard them without saving. To close the edit pane without saving changes:<br><ul><li>Click <b>Discard Draft</b>.</li><li>To confirm and close the edit pane, click <b>Discard</b>.</li></ul><br><img src='course/en/images/discard.png' alt='discard changes'>",
		"instruction":"",
		"_isComplete": false,
		"_pageLevelProgress": {
			"_isEnabled": true
		}
	}, 
	{
		"_id":"c-499",
		"_parentId":"b-499",
		"_type":"component",
		"_component":"co-jump",
		"_classes":"color-test",
		"_preLinkBody":"Large organizations and ad agencies often run thousands of Facebook ads at a time. To streamline bulk ad creation, all advertisers can ",
		"_linkBody":"Import and Export Ad Objects",
		"_postLinkBody":" at scale.",
		"_link":"#/id/co-500",
		"_graphic":"adapt/css/assets/icon_nextPage.png",
		"_pageLevelProgress": {
			"_isEnabled": false
		},
		"_isComplete": false
	},
	{
		"_id":"c-500",
		"_parentId":"b-500",
		"_type":"component",
		"_component":"text",
		"_classes":"",
		"_layout":"left",
		"title":"Import and export",
		"displayTitle":"Import and export",
		"body":"There are two ways to import ads and creative at scale using the bulk import function:<br><ul><li>Use a tab-separated document or a comma-separated value (CSV) file.</li><li>Use the pre-formatted Excel template.</li></ul><br>For both methods, first select the <strong><img src='course/en/images/glyph-export-import.png' alt='export-import button'> Export & Import</strong> button.",
		"instruction":"",
		"_isComplete": false,
		"_pageLevelProgress": {
			"_isEnabled": true
		}
	},
	{
		"_id":"c-500r",
		"_parentId":"b-500",
		"_type":"component",
		"_component":"graphic",
		"_classes":"",
		"_layout":"right",
		"title":"",
		"displayTitle":"",
		"body":"",
		"instruction":"",
		"_graphic": {
			"alt": "Export & Import button UI",
			"src": "course/en/images/import_export.png"
		},
		"_pageLevelProgress": {
			"_isEnabled": false
		},
		"_isComplete": true
	},
	{
		"_id":"c-510",
		"_parentId":"b-510",
		"_type":"component",
		"_component":"text",
		"_classes":"",
		"_layout":"full",
		"title":"Export at scale",
		"displayTitle":"Export at scale",
		"body":"If you have any campaigns, ad sets, or ads selected when you hit “Download template,” you'll download a pre-formatted spreadsheet or text file containing all the information they contain in bulk. This can be useful if you want to edit existing ad objects &mdash; or create new ones based on existing ones &mdash; at scale.",
		"instruction":"",
		"_isComplete": true,
		"_pageLevelProgress": {
			"_isEnabled": true
		}
	},
    {
		"_id":"c-520",
		"_parentId":"b-520",
		"_type":"component",
		"_component":"text",
		"_classes":"",
		"_layout":"full",
		"title":"Import at scale ",
		"displayTitle":"Import at scale ",
		"body":"Download the Excel template to simplify bulk uploading, or you can upload &mdash; or copy and paste from &mdash; a CSV and manually match field names.<br><br>After you have your creative ready — in either delimited text or Excel formats — select “Import Ads in Bulk” to upload your content and any associated images.<br><br><img src='course/en/images/bulk_import.png' alt='Bulk import text, Excel file, images'>",
		"instruction":"",
		"_isComplete": true,
		"_pageLevelProgress": {
			"_isEnabled": true
		}
	},
	{
		"_id":"c-530",
		"_parentId":"b-530",
		"_type":"component",
		"_component":"text",
		"_classes":"",
		"_layout":"full",
		"title":"Edit at scale",
		"displayTitle":"Edit at scale using the export and import tool",
		"body":"To bulk edit, select the Export & Import button, and choose <strong>Export All</strong>. <br><br>You can also select the checkboxes by specific campaigns, ad sets, or ads to group them together and download and edit them as a batch. Make edits within Excel, and import the updated file. Then, review changes and publish.<br><br>To learn more about bulk importing and exporting, see the Help center articles <a href='https://www.facebook.com/business/help/849477685213347' target='_blank'>How to import or export ads</a> and <a href='https://www.facebook.com/business/help/598000063595418' target='_blank'>Bulk import/export ads with Ads Manager</a>. To learn more about troubleshooting errors, see the <a href='https://www.facebook.com/business/help/168687090505329' target='_blank'>Troubleshoot import/export in Ads Manager</a> article. Here you'll find explanations of each error message — what went wrong and how to resolve the problem.",
		"instruction":"",
		"_pageLevelProgress": {
			"_isEnabled": true
		},
		"_isComplete": true
	},
	{
		"_id":"c-599",
		"_parentId":"b-599",
		"_type":"component",
		"_component":"co-jump",
		"_classes":"color-test",
		"_preLinkBody":"Next, let's explore some other ",
		"_linkBody":"Advanced Functions",
		"_postLinkBody":" of Ads Manager.",
		"_link":"#/id/co-600",
		"_graphic":"adapt/css/assets/icon_nextPage.png",
		"_pageLevelProgress": {
			"_isEnabled": false
		},
		"_isComplete": false
	},
	{
		"_id":"c-600",
		"_parentId":"b-600",
		"_type":"component",
		"_component":"text",
		"_classes":"",
		"_layout":"full",
		"title":"",
		"displayTitle":"",
		"body":"Some advertisers and agencies manage thousands of Facebook ads regularly. The following tools and functions were designed with large advertisers in mind, but anyone can use them to organize and optimize Facebook advertising.",
		"instruction":"",
		"_isComplete": false,
		"_pageLevelProgress": {
			"_isEnabled": false
		}
	},
	{
		"_id":"c-610",
		"_parentId":"b-610",
		"_type":"component",
		"_component":"graphic",
		"_classes":"",
		"_layout":"full",
		"title":"Group your campaigns with tags",
		"displayTitle":"Group your campaigns with tags",
		"body":"Tags organize campaigns into groups so they're easier to find and work with. ",
		"instruction":"",
		"_graphic": {
			"alt": "Tag UI",
			"src": "course/en/images/tags.png"
		},
		"_isComplete": false,
		"_pageLevelProgress": {
			"_isEnabled": true
		}
	},
	{
		"_id":"c-612",
		"_parentId":"b-610",
		"_type":"component",
		"_component":"text",
		"_classes":"",
		"_layout":"full",
		"title":"",
		"displayTitle":"",
		"body":"<ol><li>Navigate to the <strong>Campaigns</strong> area of Ads Manager.<br><cite>Note: You may need to adjust filters to surface the campaigns you want to tag.</cite></li><br><li>Select the campaign(s) you want to tag, and click the <strong><img src='course/en/images/tag.png' alt='tag button'> Tag</strong> button.</li><br><li>Enter a new name for the tag, or select an existing tag.</li><br><li>Click <strong>Apply</strong>. This saves the tag, and you can apply it to other campaigns.</li></ol>",
		"instruction":"",
		"_isComplete": false,
		"_pageLevelProgress": {
			"_isEnabled": false
		}
	},
	{
		"_id":"c-620",
		"_parentId":"b-620",
		"_type":"component",
		"_component":"graphic",
		"_classes":"",
		"_layout":"full",
		"title":"Split audiences",
		"displayTitle":"Split audiences",
		"body":"Split testing lets you test different variables of your ad campaigns so you can see what works best, then keep building on success and improve future media plans.  <b>Split Audiences</b> are a specific type of split testing that enable you to isolate and test different audience characteristics in existing ad sets.<br><br>Ads Manager lets you split audiences at the ad set level to better understand how your delivery selections affect campaign performance — for example, to test how your ad performs when you target specific ages or genders. You can split an audience as many times as you like.<br><br>To create split audiences, select an ad set, then choose <strong>Split Audiences</strong> from the <strong><img src='course/en/images/glyph-copy.png' alt='duplicate button'> Duplicate</strong> dropdown.",
		"instruction":"",
		"_graphic": {
			"alt": "Bulk import text, Excel file, images",
			"src": "course/en/images/split_test.png"
		},
		"_isComplete": false,
		"_pageLevelProgress": {
			"_isEnabled": true
		}
	},
	{
		"_id":"c-622",
		"_parentId":"b-620",
		"_type":"component",
		"_component":"graphic",
		"_classes":"",
		"_layout":"full",
		"title":"Conduct split tests",
		"displayTitle":"",
		"body":"Let's find out if these ads — originally targeting all parents of young children — perform better with dads only, moms only, or parents in general. We'll create two new ad sets: one targeted just to men and the other to women. The original ad set — which will be delivered to all genders — remains active. ",
		"instruction":"",
		"_graphic": {
			"alt": "Bulk import text, Excel file, images",
			"src": "course/en/images/split_audience.png"
		},
		"_isComplete": false,
		"_pageLevelProgress": {
			"_isEnabled": true
		}
	},
	{
		"_id":"c-624",
		"_parentId":"b-620",
		"_type":"component",
		"_component":"text",
		"_classes":"",
		"_layout":"full",
		"title":"",
		"displayTitle":"",
		"body":"When you split an audience, you can choose whether to split your budget between any new ad sets, or duplicate your budgets instead. You can also opt to create new budgets for the new ad sets. <a href='https://www.facebook.com/business/help/1738164643098669' target='_blank'>Learn more about split testing</a> with Facebook Business.",
		"instruction":"",
		"_isComplete": false,
		"_pageLevelProgress": {
			"_isEnabled": false
		}
	},
	{
		"_id":"c-630",
		"_parentId":"b-630",
		"_type":"component",
		"_component":"graphic",
		"_classes":"",
		"_layout":"full",
		"title":"Establish automated rules",
		"displayTitle":"Establish automated rules",
		"body":"You can create rules at the campaign, ad set, or ad level. Rules update ad delivery or notify you of changes to your campaigns, ad sets, or ads. Some of the things that rules can do include:<br><br><ul><li>Turning off your ad if it doesn't perform well.</li><li>Increasing the budget of an ad set when more people click on those ads.</li><li>Sending a notification to your email address when the overall number of people who view your ad decreases past a certain number.</li></ul><br>To create a rule:<ol><li>Select one or more ad objects to activate the <strong>Create Rule</strong> button, then click it.</li>",
		"instruction":"",
		"_graphic": {
			"alt": "Create a rule",
			"src": "course/en/images/rule_add.png"
		},
		"_isComplete": false,
		"_pageLevelProgress": {
			"_isEnabled": true
		}
	},
    {
		"_id":"c-640",
		"_parentId":"b-640",
		"_type":"component",
		"_component":"text",
		"_classes":"",
		"_layout":"full",
		"title":"",
		"displayTitle":"",
		"body":"<ol start='2'><li>From the Create Rule dialog, you can select <a href='https://www.facebook.com/business/help/975877422460996' target='_blank'>the criteria that triggers the rule</a>, <a href='https://www.facebook.com/business/help/192277077825914' target='_blank'>the action your rule takes</a> on the ad objects you selected, and which active campaign, ad set, or ad you want the rule to affect.</li><br><br><img src='course/en/images/rule_create.png' alt='select criteria'>",
		"instruction":"",
		"_isComplete": false,
		"_pageLevelProgress": {
			"_isEnabled": false
		}
	},
	{
		"_id":"c-650",
		"_parentId":"b-650",
		"_type":"component",
		"_component":"graphic",
		"_classes":"",
		"_layout":"full",
		"title":"Manage rules",
		"displayTitle":"",
		"body":"To manage rules, navigate to the <strong>Automated Rules</strong> area within your ad account, where you can edit rules, or turn them on or off:",
		"instruction":"",
		"_graphic": {
			"alt": "Manage rules",
			"src": "course/en/images/rules_manage.png"
		},
		"_isComplete": false,
		"_pageLevelProgress": {
			"_isEnabled": true
		}
	},
	{
		"_id":"c-652",
		"_parentId":"b-650",
		"_type":"component",
		"_component":"text",
		"_classes":"",
		"_layout":"full",
		"title":"",
		"displayTitle":"",
		"body":"While rules can streamline your ad management, you should still keep an eye on things in Ads Manager.",
		"instruction":"",
		"_isComplete": false,
		"_pageLevelProgress": {
			"_isEnabled": false
		}
	},
	{
		"_id":"c-699",
		"_parentId":"b-699",
		"_type":"component",
		"_component":"co-jump",
		"_classes":"color-test",
		"_preLinkBody":"We’ve covered a lot of information, so let’s do a quick ",
		"_linkBody":"Knowledge Check",
		"_postLinkBody":"!",
		"_link":"#/id/co-700",
		"_graphic":"adapt/css/assets/icon_nextPage.png",
		"_pageLevelProgress": {
			"_isEnabled": false
		},
		"_isComplete": false
	},
	{
		"_id":"c-700",
		"_parentId":"b-700",
		"_type":"component",
		"_component":"mcq",
		"_classes":"",
		"_layout":"full",
		"_attempts":1,
		"_questionWeight":1,
		"_isRandom":false,
		"_selectable":1,
		"title": "Question 1 of 4",
		"displayTitle": "Question 1 of 4",
		"body": "You edited an ad set. What does that change impact?",
		"instruction": "",
		"_setCompletionOn": "inview",
		"_items": [
			{
				"text": "Only the ad itself",
				"_shouldBeSelected":false
			},
			{
				"text": "Only the ad set itself",
				"_shouldBeSelected":false
			},
			{
				"text": "The ad set plus any ads it contains",
				"_shouldBeSelected":true
			},
			{
				"text": "The ad set plus the campaign that contains it",
				"_shouldBeSelected":false
			}
		],
		"_feedback":{
			"correct":"Exactly! Updates to ad sets impact the ad set plus the ads contained in it. Changes at the ad set level don't flow uphill to the parent campaigns.",
			"_incorrect": {
				"notFinal": "",
				"final": "Not quite. Updates to ad sets impact the ad set plus the ads contained in it. Changes at the ad set level don't flow uphill to the parent campaigns."
			}
		},
		"_buttons": {
				"_submit": {
					"buttonText": "Submit",
					"ariaLabel": "Select here to submit your answer."
				},
				"_reset": {
					"buttonText": "Reset",
					"ariaLabel": ""
				},
				"_showCorrectAnswer": {
					"buttonText": "Correct Answer",
					"ariaLabel": ""
				},
				"_hideCorrectAnswer": {
					"buttonText": "My Answer",
					"ariaLabel": ""
				},
				"_showFeedback": {
					"buttonText": "Show feedback",
					"ariaLabel": ""
				},
				"remainingAttemptsText": "attempts remaining",
				"remainingAttemptText": "final attempt"
			},
		"_pageLevelProgress": {
			"_isEnabled": true
		},
		"_isComplete": true
	},
	{
		"_id":"c-710",
		"_parentId":"b-710",
		"_type":"component",
		"_component":"mcq",
		"_classes":"",
		"_layout":"full",
		"_attempts":1,
		"_questionWeight":1,
		"_isRandom":false,
		"_selectable":1,
		"title": "Question 2 of 4",
		"displayTitle": "Question 2 of 4",
		"body": "Which is an example of an action that you can automate with rules?",
		"instruction": "",
		"_setCompletionOn": "inview",
		"_items": [
			{
				"text": "Split audiences to optimize delivery",
				"_shouldBeSelected":false
			},
			{
				"text": "Adjust ad budget based on performance",
				"_shouldBeSelected":true
			},
			{
				"text": "Organize campaigns with campaign tags",
				"_shouldBeSelected":false
			},
			{
				"text": "Customize columns or exportable reports",
				"_shouldBeSelected":false
			}
		],
		"_feedback":{
			"correct":"Correct! An automatic action (such as increasing a budget) is trigged by a cause (such as a change in performance.)",
			"_incorrect": {
				"notFinal": "",
				"final": "Not quite. An automatic action (such as increasing a budget) is trigged by a cause (such as a change in performance.)"
			}
		},
		"_buttons": {
				"_submit": {
					"buttonText": "Submit",
					"ariaLabel": "Select here to submit your answer."
				},
				"_reset": {
					"buttonText": "Reset",
					"ariaLabel": ""
				},
				"_showCorrectAnswer": {
					"buttonText": "Correct Answer",
					"ariaLabel": ""
				},
				"_hideCorrectAnswer": {
					"buttonText": "My Answer",
					"ariaLabel": ""
				},
				"_showFeedback": {
					"buttonText": "Show feedback",
					"ariaLabel": ""
				},
				"remainingAttemptsText": "attempts remaining",
				"remainingAttemptText": "final attempt"
			},
		"_pageLevelProgress": {
			"_isEnabled": true
		},
		"_isComplete": true
	},
	{
		"_id":"c-720",
		"_parentId":"b-720",
		"_type":"component",
		"_component":"mcq",
		"_classes":"",
		"_layout":"full",
		"_attempts":1,
		"_questionWeight":1,
		"_isRandom":false,
		"_selectable":1,
		"title": "Question 3 of 4",
		"displayTitle": "Question 3 of 4",
		"body": "Which of the following tools can you use to separate age and gender for different audience targeting within an ad set?",
		"instruction": "",
		"_setCompletionOn": "inview",
		"_items": [
			{
				"text": "Split Audience",
				"_shouldBeSelected":true
			},
			{
				"text": "Excel",
				"_shouldBeSelected":false
			},
			{
				"text": "Bulk Edit",
				"_shouldBeSelected":false
			},
			{
				"text": "Duplicate",
				"_shouldBeSelected":false
			}
		],
		"_feedback":{
			"correct":"Correct! Split Audience can be used to split age and gender within an ad set.",
			"_incorrect": {
				"notFinal": "",
				"final": "Sorry, that’s incorrect. Split Audience can be used to split age and gender within an ad set."
			}
		},
		"_buttons": {
				"_submit": {
					"buttonText": "Submit",
					"ariaLabel": "Select here to submit your answer."
				},
				"_reset": {
					"buttonText": "Reset",
					"ariaLabel": ""
				},
				"_showCorrectAnswer": {
					"buttonText": "Correct Answer",
					"ariaLabel": ""
				},
				"_hideCorrectAnswer": {
					"buttonText": "My Answer",
					"ariaLabel": ""
				},
				"_showFeedback": {
					"buttonText": "Show feedback",
					"ariaLabel": ""
				},
				"remainingAttemptsText": "attempts remaining",
				"remainingAttemptText": "final attempt"
			},
		"_pageLevelProgress": {
			"_isEnabled": true
		},
		"_isComplete": true
	},
	{
		"_id":"c-730",
		"_parentId":"b-730",
		"_type":"component",
		"_component":"mcq",
		"_classes":"",
		"_layout":"full",
		"_attempts":1,
		"_questionWeight":1,
		"_isRandom":false,
		"_selectable":1,
		"title": "Question 4 of 4",
		"displayTitle": "Question 4 of 4",
		"body": "Which action may impact the continuity of data reporting? ",
		"instruction": "",
		"_setCompletionOn": "inview",
		"_items": [
			{
				"text": "Editing an ad set",
				"_shouldBeSelected":true
			},
			{
				"text": "Duplicating an ad set",
				"_shouldBeSelected":false
			},
			{
				"text": "Exporting an ad set",
				"_shouldBeSelected":false
			},
			{
				"text": "Deleting an ad set",
				"_shouldBeSelected":false
			}
		],
		"_feedback":{
			"correct":"That's right! It can be difficult to distinguish ad metrics from before and after an edit. Metrics from duplicated, exported, or deleted ads aren't affected by those actions.",
			"_incorrect": {
				"notFinal": "",
				"final": "Not exactly. It can be difficult to distinguish ad metrics from before and after an edit. Metrics from duplicated, exported, or deleted ads aren't affected by those actions. "
			}
		},
		"_buttons": {
				"_submit": {
					"buttonText": "Submit",
					"ariaLabel": "Select here to submit your answer."
				},
				"_reset": {
					"buttonText": "Reset",
					"ariaLabel": ""
				},
				"_showCorrectAnswer": {
					"buttonText": "Correct Answer",
					"ariaLabel": ""
				},
				"_hideCorrectAnswer": {
					"buttonText": "My Answer",
					"ariaLabel": ""
				},
				"_showFeedback": {
					"buttonText": "Show feedback",
					"ariaLabel": ""
				},
				"remainingAttemptsText": "attempts remaining",
				"remainingAttemptText": "final attempt"
			},
		"_pageLevelProgress": {
			"_isEnabled": true
		},
		"_isComplete": true
	},
    {
		"_id":"c-799",
		"_parentId":"b-799",
        "_type":"component",
        "_component":"co-jump",
        "_classes":"color-test",
        "_autoComplete":true,
        "_preLinkBody":"Click the button below to finish this course. Note: <a href='#'>click here</a> to verify that status bars for each module are complete.<br>",
        "_linkBody":"<div style = 'text-align:center;padding:8px;'><button class='buttons-action'><b>I'M FINISHED WITH THIS COURSE</b></button></div><br> ",
        "_postLinkBody":"",
        "_link":"",
        "_pageLevelProgress": {
            "_isEnabled": false
        }
    }
]
